{
  "AWSEBDockerrunVersion": "1",
  "Image": {
    "Name":"591931534652.dkr.ecr.eu-west-1.amazonaws.com/backend",
    "Update": "true"
  },
  "Ports": [
    {
      "ContainerPort": 5000,
      "HostPort": 80
    }
  ]
}